asmjit aa4d5eaf5589350ad33db263796ff1df6f95c85debc37f7a14446e18c3ea443b
capstone 4eae51e85d4913d0a9fd46a5f92be79de8a0dc133568e535d572c57166d4e862
cmake 3.25.0
features capstone;core;detours;exception;inlinentd;pe;virtuals;zydis
portfile.cmake d784b8fffc76645b6bc545b77cc46a5a9d0e2d9af2cef5cb9f552a3ab2d76492
ports.cmake b4accc7941cb5ff993e1a0434cea6df3e99331137294958437b2b86b7216e2e2
post_build_checks 2
powershell 7.3.1
triplet x86-windows
triplet_abi 3e71dd1d4afa622894ae367adbbb1ecbd42c57c51428a86b675fa1c8cad3a581-c0600b35e024ce0485ed253ef5419f3686f7257cfb58cb6a24febcb600fc4b4c-39c7bdccd56cfc6cb4c2745bd3a10f137d22bddf
vcpkg-cmake 2a113b8e66d4f696106553c18d6be04cb0c017b6a17c5e581695e3ea2ca47652
vcpkg-cmake-config df03a39e956b13a3aee521d6c85ed87ca1f92bfa214cf90af071db3bb07e2fac
vcpkg.json f0282512d31a7b7452cb349f5b5bf8aad1a28b33b8a2edf5c0e9e2baef9f1ba7
vcpkg_check_features 3cdc889b7e6965ad5ddab803060aed2019c0177b6f314c7a5a947c01efa4db60
vcpkg_copy_pdbs d57e4f196c82dc562a9968c6155073094513c31e2de475694143d3aa47954b1c
vcpkg_from_git 42a2f33208e157d5332b7ce93a28fc3948d4c0be78cacc8013a5d6ce06eaede1
vcpkg_from_github b743742296a114ea1b18ae99672e02f142c4eb2bef7f57d36c038bedbfb0502f
zydis b34c18e40bfbf387b7599482caf358eb79406c02cd0cc90b792a93bd1e2e588b
